<?xml version="1.0" encoding="UTF-8" standalone="no"?>
<!-- Created with Inkscape (http://www.inkscape.org/) -->

<svg
   width="256"
   height="256"
   viewBox="0 0 67.733332 67.733333"
   version="1.1"
   id="svg301"
   inkscape:version="1.2.2 (b0a8486541, 2022-12-01)"
   sodipodi:docname="all-passwords.svg"
   xmlns:inkscape="http://www.inkscape.org/namespaces/inkscape"
   xmlns:sodipodi="http://sodipodi.sourceforge.net/DTD/sodipodi-0.dtd"
   xmlns:xlink="http://www.w3.org/1999/xlink"
   xmlns="http://www.w3.org/2000/svg"
   xmlns:svg="http://www.w3.org/2000/svg">
  <sodipodi:namedview
     id="namedview303"
     pagecolor="#ffffff"
     bordercolor="#666666"
     borderopacity="1.0"
     inkscape:showpageshadow="2"
     inkscape:pageopacity="0.0"
     inkscape:pagecheckerboard="0"
     inkscape:deskcolor="#d1d1d1"
     inkscape:document-units="px"
     showgrid="false"
     inkscape:lockguides="true"
     inkscape:zoom="1"
     inkscape:cx="374"
     inkscape:cy="162.5"
     inkscape:window-width="2048"
     inkscape:window-height="1090"
     inkscape:window-x="0"
     inkscape:window-y="0"
     inkscape:window-maximized="1"
     inkscape:current-layer="layer1" />
  <defs
     id="defs298">
    <linearGradient
       inkscape:collect="always"
       id="linearGradient3383">
      <stop
         style="stop-color:#0082c9;stop-opacity:1;"
         offset="0"
         id="stop3379" />
      <stop
         style="stop-color:#1cafff;stop-opacity:1;"
         offset="1"
         id="stop3381" />
    </linearGradient>
    <linearGradient
       inkscape:collect="always"
       xlink:href="#linearGradient3383"
       id="linearGradient3637"
       gradientUnits="userSpaceOnUse"
       gradientTransform="matrix(0.63391399,0,0,0.63391399,51.961128,21.400141)"
       x1="108.02073"
       y1="82.191696"
       x2="196.73329"
       y2="-6.5208626" />
  </defs>
  <g
     inkscape:label="Layer 1"
     inkscape:groupmode="layer"
     id="layer1">
    <g
       id="g4193"
       transform="matrix(0.90909052,0,0,0.90909052,-100.10867,-2.6939257)">
      <path
         id="path3259"
         style="fill:#006096;fill-opacity:1;stroke-width:2.40053;stroke-linecap:round;stroke-linejoin:round;paint-order:markers fill stroke"
         d="m 143.16413,10.916477 a 19.204291,19.204291 0 0 0 -4.78863,19.139004 l -25.92758,25.927586 1.63906,11.169536 11.16953,1.639062 0.49107,-6.101779 6.10155,-0.490837 0.49084,-6.101549 6.10155,-0.490842 0.49083,-6.101545 6.10155,-0.490842 6.15019,-6.150193 a 19.204291,19.204291 0 0 0 19.13901,-4.788631 19.204291,19.204291 0 0 0 0,-27.158974 19.204291,19.204291 0 0 0 -27.15897,4e-6 z m 16.12934,2.727754 a 5.8703115,5.8703115 0 0 1 8.30188,0 5.8703115,5.8703115 0 0 1 -1e-5,8.301868 5.8703115,5.8703115 0 0 1 -8.30186,0 5.8703115,5.8703115 0 0 1 -10e-6,-8.301868 z" />
      <path
         id="path3633"
         style="fill:url(#linearGradient3637);fill-opacity:1;stroke-width:2.40053;stroke-linecap:round;stroke-linejoin:round;paint-order:markers fill stroke"
         d="m 149.51417,17.266481 a 19.204291,19.204291 0 0 0 -4.78863,19.139004 l -25.92758,25.927586 1.63906,11.169536 11.16953,1.639062 0.49107,-6.101779 6.10155,-0.490837 0.49084,-6.101549 6.10155,-0.490842 0.49083,-6.101545 6.10155,-0.490842 6.15019,-6.150193 a 19.204291,19.204291 0 0 0 19.13901,-4.788631 19.204291,19.204291 0 0 0 0,-27.158974 19.204291,19.204291 0 0 0 -27.15897,4e-6 z m 16.12934,2.727754 a 5.8703115,5.8703115 0 0 1 8.30188,0 5.8703115,5.8703115 0 0 1 -1e-5,8.301868 5.8703115,5.8703115 0 0 1 -8.30186,0 5.8703115,5.8703115 0 0 1 -1e-5,-8.301868 z" />
    </g>
  </g>
</svg>
