<?xml version="1.0" encoding="UTF-8"?>
<svg width="256" height="256" version="1.1" viewBox="0 0 67.733 67.733" xmlns="http://www.w3.org/2000/svg" xmlns:xlink="http://www.w3.org/1999/xlink">
 <defs>
  <linearGradient id="linearGradient9655" x1="11.346" x2="58.929" y1="57.679" y2="10.097" gradientUnits="userSpaceOnUse">
   <stop stop-color="#0082c9" offset="0"/>
   <stop stop-color="#1cafff" offset="1"/>
  </linearGradient>
 </defs>
 <path d="m5.6612 10.054h56.411c1.9637 0 3.5446 1.5809 3.5446 3.5446v40.536c0 1.9637-1.5809 3.5446-3.5446 3.5446h-56.411c-1.9637 0-3.5446-1.5809-3.5446-3.5446v-40.536c0-1.9637 1.5809-3.5446 3.5446-3.5446z" fill="url(#linearGradient9655)" stroke-linecap="round" stroke-linejoin="round" stroke-width="3.6952" style="paint-order:markers fill stroke"/>
 <path d="m45.495 10.054 6.734-6.734c0.75082-0.75082 1.9553-0.75524 2.7006-0.0099l4.7928 4.7928c0.74533 0.74533 0.74091 1.9498-0.0099 2.7006l-6.734 6.734z" fill="#006096" style="paint-order:markers fill stroke"/>
 <path d="m25.293 30.256 20.202-20.202 7.4836 7.4836-20.202 20.202-9.1266 1.643z" fill="#fff" style="paint-order:markers fill stroke"/>
</svg>
