<?xml version="1.0" encoding="UTF-8" standalone="no"?>
<!-- Created with Inkscape (http://www.inkscape.org/) -->

<svg
   width="256"
   height="256"
   viewBox="0 0 67.733332 67.733333"
   version="1.1"
   id="svg3286"
   inkscape:version="1.2.2 (b0a8486541, 2022-12-01)"
   sodipodi:docname="tags.svg"
   xmlns:inkscape="http://www.inkscape.org/namespaces/inkscape"
   xmlns:sodipodi="http://sodipodi.sourceforge.net/DTD/sodipodi-0.dtd"
   xmlns:xlink="http://www.w3.org/1999/xlink"
   xmlns="http://www.w3.org/2000/svg"
   xmlns:svg="http://www.w3.org/2000/svg">
  <sodipodi:namedview
     id="namedview3288"
     pagecolor="#ffffff"
     bordercolor="#666666"
     borderopacity="1.0"
     inkscape:showpageshadow="2"
     inkscape:pageopacity="0.0"
     inkscape:pagecheckerboard="0"
     inkscape:deskcolor="#d1d1d1"
     inkscape:document-units="px"
     showgrid="false"
     inkscape:zoom="2.3786088"
     inkscape:cx="58.857934"
     inkscape:cy="120.44856"
     inkscape:window-width="2048"
     inkscape:window-height="1090"
     inkscape:window-x="0"
     inkscape:window-y="0"
     inkscape:window-maximized="1"
     inkscape:current-layer="layer1" />
  <defs
     id="defs3283">
    <linearGradient
       inkscape:collect="always"
       id="linearGradient3426">
      <stop
         style="stop-color:#0082c9;stop-opacity:1;"
         offset="0"
         id="stop3422" />
      <stop
         style="stop-color:#1cafff;stop-opacity:1;"
         offset="1"
         id="stop3424" />
    </linearGradient>
    <linearGradient
       inkscape:collect="always"
       xlink:href="#linearGradient3426"
       id="linearGradient3428"
       x1="11.791191"
       y1="55.942142"
       x2="63.414337"
       y2="4.3189964"
       gradientUnits="userSpaceOnUse"
       gradientTransform="matrix(1.039985,0.07738884,0.07738884,1.039985,-3.6658709,-4.2842572)" />
  </defs>
  <g
     inkscape:label="Layer 1"
     inkscape:groupmode="layer"
     id="layer1">
    <path
       id="rect3407"
       style="fill:url(#linearGradient3428);fill-opacity:1;stroke-width:0.304177;stroke-linecap:round;stroke-linejoin:round;stroke-opacity:0.973941;paint-order:markers fill stroke"
       d="M 2.1166672,44.005765 23.727567,65.616666 65.616665,23.72757 C 64.416588,7.600392 66.987593,10.016419 62.352253,5.3810801 57.716912,0.74573975 60.13294,3.316745 44.005764,2.1166667 Z M 55.916257,7.3229043 c 1.285262,-1.2852614 3.082336,-1.5720063 4.574258,-0.080088 1.491921,1.4919212 1.205176,3.2889967 -0.08009,4.5742587 -1.285262,1.285262 -3.082339,1.572008 -4.574261,0.08009 -1.49192,-1.491922 -1.205174,-3.2889973 0.08009,-4.5742577 z"
       sodipodi:nodetypes="cccsccsssss" />
  </g>
</svg>
